Exercise 21
…
d <- pre %>% 
  filter( !is.na( ideo ) ) %>%
  select(state, ideo) %>%
  group_by(state) %>%
  summarise(lib=sum(ideo == "very liberal"), n=n()) %>%
  left_join(mapping, by="state") %>%
  left_join(election, by="abb") %>%
  mutate(lib.prop = lib / n ,
         obama_vote_share = vote_Obama_pct / 100,
         obama_won = vote_Obama_pct > 50)

d  

# A tibble: 50 x 13
   state   lib     n abb   vote_Obama vote_Obama_pct vote_McCain
   <chr> <int> <int> <chr>      <int>          <dbl>       <int>
 1 alab    30   617 AL        811764           38.8     1264879
 2 ariz    28   533 AZ        948648           45       1132560
 3 arka     7   304 AR        418049           38.8      632672
 4 cali   179  2809 CA       7245731           60.9     4434146
 5 colo    27   465 CO       1216793           53.5     1020135
 6 conn    14   391 CT        979316           60.5      620210
 7 dela     7   116 DE        255394           61.9      152356
 8 wash     7    62 DC        210403           92.9       14821
 9 flor    65  1717 FL       4143957           50.9     3939380
10 geor    42  1015 GA       1843452           47       2048244
#  with 40 more rows, and 6 more variables: vote_McCain_pct <dbl>,
#   electoral_vote_dem <int>, electoral_vote_rep <int>, lib.prop <dbl>,
#   obama_vote_share <dbl>, obama_won <lgl>
…
